17
-4.7619793547459426e+02 frame 1   xyz file generated by TeraChem
     C    -1.1337665778    1.1185855316    0.0382913701
     C    -1.0357498751   -0.2650578712    0.0822184028
     C     1.3718410769   -0.0853602305   -0.0942681345
     H    -1.9326153948   -0.8711486894    0.1805542072
     N     0.3249049809   -2.2737605939   -0.0043656315
     C     0.2215299294   -0.8921462512    0.0094410154
     C     1.2625462915    1.2941429662   -0.1275366926
     H     2.1473714632    1.9180513591   -0.1929745679
     C     0.0091466295    1.9236763697   -0.0766721425
     H    -2.1207695049    1.5644187437    0.1409883247
     H    -1.8445120586    3.3261877176   -0.7218622434
     H     2.3502197097   -0.5563548633   -0.1478633016
     C    -0.0234251661    3.4110288913   -0.1067036200
     O    -1.2227826502    3.9968757613   -0.3968177484
     O     0.9414542609    4.1083775714    0.1108433374
     H     1.2205253490   -2.6565555542    0.2681701598
     H    -0.4546784634   -2.7853108580    0.3872372652
