Trajectory_0002, 137.14
Trajectory_0008, 137.14
Trajectory_0004, 137.14
Trajectory_0007, 137.14
Trajectory_0005, 137.14
Trajectory_0009, 137.14
Trajectory_0001, 137.14
Trajectory_0003, 137.14
Trajectory_0006, 137.14
Trajectory_0000, 137.14
